{
    "copper": {
        "template": "uniform",
        "block": {
            "name": "ThermalFoundation:Ore",
            "metadata": 0
        },
        "clusterSize": 8,
        "numClusters": 10,
        "minHeight": 40,
        "maxHeight": 75,
        "retrogen": "false",
        "biomeRestriction": "none",
        "biomes": [
            "all"
        ],
        "dimensionRestriction": "whitelist",
        "dimensions": [
            0,
            6,
			-100
        ]
    },
    "tin": {
        "template": "uniform",
        "block": {
            "name": "ThermalFoundation:Ore",
            "metadata": 1
        },
        "clusterSize": 8,
        "numClusters": 10,
        "minHeight": 20,
        "maxHeight": 55,
        "retrogen": "false",
        "biomeRestriction": "none",
        "biomes": [
            "all"
        ],
        "dimensionRestriction": "whitelist",
        "dimensions": [
            0,
            6,
			-100
        ]
    },
    "silver": {
        "template": "uniform",
        "block": [
            {
                "name": "ThermalFoundation:Ore",
                "metadata": 2,
                "weight": 80
            },
            {
                "name": "ThermalFoundation:Ore",
                "metadata": 3,
                "weight": 20
            }
        ],
        "clusterSize": 8,
        "numClusters": 10,
        "minHeight": 5,
        "maxHeight": 30,
        "retrogen": "false",
        "biomeRestriction": "none",
        "biomes": [
            "all"
        ],
        "dimensionRestriction": "whitelist",
        "dimensions": [
            6,
			-100
        ]
    },
    "lead": {
        "template": "uniform",
        "block": [
            {
                "name": "ThermalFoundation:Ore",
                "metadata": 3,
                "weight": 90
            },
            {
                "name": "ThermalFoundation:Ore",
                "metadata": 2,
                "weight": 10
            }
        ],
        "clusterSize": 8,
        "numClusters": 10,
        "minHeight": 10,
        "maxHeight": 35,
        "retrogen": "false",
        "biomeRestriction": "none",
        "biomes": [
            "all"
        ],
        "dimensionRestriction": "whitelist",
        "dimensions": [
            0,
            6,
			-100
        ]
    },
    "nickel": {
        "template": "uniform",
        "block": {
            "name": "ThermalFoundation:Ore",
            "metadata": 4
        },
        "clusterSize": 6,
        "numClusters": 4,
        "minHeight": 5,
        "maxHeight": 25,
        "retrogen": "false",
        "biomeRestriction": "none",
        "biomes": [
            "all"
        ],
        "dimensionRestriction": "whitelist",
        "dimensions": [
            6,
			-100
        ]
    },
	"shiny": {
        "template": "uniform",
        "block": {
            "name": "ThermalFoundation:Ore",
            "metadata": 5
        },
        "clusterSize": 2,
        "numClusters": 2,
        "minHeight": 5,
        "maxHeight": 30,
        "retrogen": "false",
        "biomeRestriction": "none",
        "biomes": [
            "all"
        ],
        "dimensionRestriction": "whitelist",
        "dimensions": [
            6
        ]
    },
	"manaInfused": {
        "template": "uniform",
        "block": {
            "name": "ThermalFoundation:Ore",
            "metadata": 6
        },
        "clusterSize": 2,
        "numClusters": 2,
        "minHeight": 5,
        "maxHeight": 30,
        "retrogen": "false",
        "biomeRestriction": "none",
        "biomes": [
            "all"
        ],
        "dimensionRestriction": "whitelist",
        "dimensions": [
            6
        ]
    }
}